0.0442419 0 0.0184376 0 0.0626795
0.056228 0.204997 0.0432492 0.0014671 0.305941
0.145806 0.457854 0.200268 0.0194733 0.8234
0.612527 1.50145 0.681083 0.208944 3.00401
1.20623 2.25668 1.44666 0.717328 5.6269
2.08332 2.58295 1.94317 1.70107 8.31051
4.15547 4.13584 2.49203 3.49261 14.2759
7.60878 7.05562 3.65044 7.0257 25.3405
11.7262 9.71667 6.10119 8.1249 35.669
13.8744 11.6005 7.57508 9.62718 42.6771
14.1859 13.436 9.66146 12.1439 49.4272
14.537 12.3737 10.5939 16.3387 53.8433
13.6974 11.1474 12.7839 13.7519 51.3807
12.3022 9.31876 13.1304 10.5547 45.3061
10.4922 8.62856 11.9168 10.4412 41.4787
9.1551 8.49754 10.8208 11.791 40.2644
8.76204 8.46202 11.8584 12.0812 41.1637
9.31714 8.49369 13.3778 12.2242 43.4128
9.82317 9.03417 14.4526 12.6444 45.9543
9.90963 8.42364 14.4315 12.3202 45.0849
9.69936 8.62391 13.3669 11.9469 43.6371
9.01571 8.44726 12.3423 10.5718 40.3771
8.58014 8.43157 12.0424 10.5204 39.5745
8.4395 8.58931 12.0364 10.0638 39.129
9.04011 8.24946 11.957 10.7499 39.9965
9.15512 8.24481 12.451 11.0886 40.9395
9.33576 7.92147 12.1614 11.2497 40.6683
9.19812 7.93709 11.9245 11.0621 40.1218
8.79884 7.774 11.4761 10.8979 38.9468
8.62353 7.85805 11.0113 10.593 38.0858
8.40006 7.77572 10.7299 10.1818 37.0876
8.69179 7.92794 10.5413 10.361 37.522
8.91034 8.11191 10.3544 9.86795 37.2446
9.31133 7.89138 10.2088 9.71367 37.1252
9.37363 7.63029 10.2525 9.35602 36.6125
9.68904 7.55227 9.80328 9.1574 36.202
9.61946 7.52945 9.37434 8.96684 35.4901
9.5304 7.28463 9.36564 8.64123 34.8219
9.12564 6.98144 8.86702 8.43129 33.4054
8.56821 6.88743 8.8148 8.82413 33.0946
8.85255 6.55643 8.22368 8.77261 32.4053
8.91023 6.64294 8.53288 8.49228 32.5783
9.24727 6.92456 8.14921 8.53825 32.8593
9.23775 6.71728 7.87121 7.90145 31.7277
8.74825 6.81037 7.85602 7.84489 31.2595
8.02312 6.43287 7.45948 7.33051 29.246
7.82542 6.20571 7.36065 7.54432 28.9361
8.20939 5.77698 7.2287 6.9033 28.1184
8.22233 5.42846 7.132 6.82039 27.6032
8.5815 5.07755 6.905 6.73885 27.3029
8.51559 4.55293 6.81027 6.53982 26.4186
7.99979 4.55283 6.77839 6.30321 25.6342
7.56206 4.10613 6.2571 6.09379 24.0191
7.07811 3.8375 6.20792 6.20275 23.3263
6.83298 3.73257 5.99428 6.17305 22.7329
6.54173 3.72914 5.8902 6.34266 22.5037
6.49402 3.85562 5.82157 6.52706 22.6983
6.42178 3.63601 5.79997 6.23753 22.0953
6.08051 3.77222 5.8217 6.3307 22.0051
6.11708 3.47621 5.55206 5.98695 21.1323
5.65012 3.27274 5.59526 5.93351 20.4516
5.23056 3.07771 5.42364 5.79526 19.5272
4.7413 2.81803 5.37558 5.46426 18.3992
4.2587 2.82136 5.52394 5.11045 17.7145
3.76051 2.72432 5.28211 4.6112 16.3781
3.18736 2.67846 5.41218 4.24917 15.5272
2.88365 2.35028 5.46907 3.69444 14.3974
2.56189 2.1347 5.22006 3.43458 13.3512
2.29546 2.02605 5.29205 3.31898 12.9325
2.15921 1.89589 5.32906 3.09456 12.4787
1.91749 2.00418 5.20494 3.12329 12.2499
1.7681 2.17228 5.25354 2.918 12.1119
1.63583 2.22254 4.67118 2.99548 11.525
1.63193 2.20673 4.44214 2.8632 11.144
1.71121 2.17377 3.95178 2.9549 10.7917
1.81606 2.18222 3.54076 2.9402 10.4792
1.95682 2.14531 3.0092 2.99081 10.1021
2.12116 2.23094 2.56133 3.11497 10.0284
2.23689 2.44877 2.46224 3.10616 10.2541
2.2505 2.55667 2.30763 3.16666 10.2815
2.3668 2.61843 2.31886 2.94644 10.2505
2.56111 2.54447 2.36983 2.96012 10.4355
2.80301 2.5495 2.5068 3.12353 10.9828
3.16653 2.51036 2.63463 3.18357 11.4951
3.50791 2.47779 2.68503 3.26411 11.9348
3.85909 2.49085 2.90081 3.29453 12.5453
3.98255 2.49064 2.87367 3.33419 12.6811
4.06508 2.58678 3.04176 3.23251 12.9261
3.95994 2.64588 3.22857 3.13841 12.9728
3.76279 2.68297 3.39007 3.12066 12.9565
3.70207 2.64058 3.6308 3.12533 13.0988
3.56569 2.78893 3.59066 3.17254 13.1178
3.53204 2.8467 3.86256 3.12095 13.3622
3.41426 2.87288 3.76178 3.1282 13.1771
3.47463 2.90436 3.73034 3.02255 13.1319
3.56391 3.00658 3.64727 2.98399 13.2017
3.49809 3.09436 3.55111 2.93803 13.0816
3.49408 3.04329 3.45436 2.89993 12.8917
3.42697 3.03119 3.48593 2.9724 12.9165
3.62765 3.09218 3.47734 2.74901 12.9462
3.66086 3.04515 3.43921 2.73704 12.8823
3.79671 3.04722 3.45194 2.81624 13.1121
4.11883 3.0936 3.51921 2.87544 13.6071
4.37588 3.10219 3.30187 3.07725 13.8572
4.59329 3.00955 3.4739 3.17917 14.2559
4.44205 3.05612 3.48242 3.34863 14.3292
4.53583 3.11761 3.50922 3.19392 14.3566
4.55965 3.11079 3.3829 3.12633 14.1797
4.5504 3.02557 3.22198 3.08302 13.881
4.55314 3.04026 3.28519 3.09908 13.9777
4.32939 3.09673 3.21368 3.17832 13.8181
4.18746 3.11624 3.24525 3.19302 13.742
3.7428 3.0122 3.32141 3.21013 13.2865
3.56218 3.10614 3.70994 3.26616 13.6444
3.48812 3.10967 3.73845 3.15255 13.4888
3.37069 2.96972 3.73682 3.08494 13.1622
3.40455 3.03205 3.85229 3.11203 13.4009
3.29674 3.0383 3.84506 2.97591 13.156
3.24165 3.06286 3.75688 2.70726 12.7686
3.05099 2.95602 3.77983 2.63363 12.4205
2.98192 3.05422 3.72048 2.50309 12.2597
3.05584 3.03075 3.687 2.34979 12.1234
3.20344 2.88491 3.67407 2.36413 12.1265
3.52849 2.94814 3.68781 2.45348 12.6179
3.50802 2.99978 3.23312 2.5597 12.3006
3.51826 3.1591 3.32614 2.46645 12.47
3.73431 3.16016 3.39774 2.68416 12.9764
4.07997 3.16752 3.27047 2.74305 13.261
4.22106 2.84809 2.95571 3.38902 13.4139
4.30631 2.91188 2.98112 3.51008 13.7094
4.30235 2.87531 2.85585 3.74755 13.7811
3.41015 2.53664 2.63187 3.39809 11.9768
3.35716 2.47718 2.4398 3.13665 11.4108
3.40686 2.23781 2.35899 3.05857 11.0622
3.97856 2.636 3.08245 2.78358 12.4806
4.19229 2.62636 3.26381 3.02795 13.1104
4.22367 2.92696 3.50285 3.04596 13.6994
4.31361 2.91771 3.52778 3.79542 14.5545
3.8627 3.07016 3.53127 3.79007 14.2542
3.63325 3.12163 3.52813 3.80368 14.0867
3.06059 3.36328 3.9121 3.61485 13.9508
3.21466 3.1017 3.93733 3.70015 13.9538
3.27235 3.12587 4.01333 3.51083 13.9224
3.32798 2.9539 4.26024 3.27541 13.8175
3.27253 2.80923 4.19401 2.97773 13.2535
3.52789 2.7175 4.04809 2.75297 13.0465
3.72552 2.76581 4.24101 2.55204 13.2844
3.95501 3.01281 4.41859 2.49478 13.8812
4.30885 3.02464 4.37536 2.51363 14.2225
4.35235 3.36726 4.24256 2.62603 14.5882
4.396 3.47726 4.31675 2.63766 14.8277
4.04699 3.54391 4.35949 2.77927 14.7297
3.90993 3.7092 4.2964 2.84952 14.765
3.86981 3.59603 4.2812 2.95584 14.7029
3.68297 3.81112 4.14336 3.01116 14.6486
3.76601 3.63085 4.11426 3.15217 14.6633
3.7082 3.71496 3.91424 3.26213 14.5995
3.74276 3.61603 3.90414 3.32836 14.5913
3.48487 3.51443 3.84709 3.38535 14.2318
3.45087 3.51643 3.82813 3.36731 14.1627
3.36249 3.17358 4.13023 3.38933 14.0556
3.23461 3.24705 4.07774 3.41616 13.9756
3.16788 3.09608 4.10862 3.08333 13.4559
3.07783 3.07578 4.04121 3.19564 13.3905
3.14908 3.11239 4.24168 3.21071 13.7139
3.14675 3.03546 4.17415 3.21955 13.5759
3.17505 3.18685 4.10329 3.32702 13.7922
3.39714 2.98244 4.2148 3.30185 13.8962
3.53692 3.09636 4.18349 3.53698 14.3537
3.76865 2.97074 4.23197 3.37447 14.3458
3.89173 2.9291 3.95262 3.35296 14.1264
3.98598 3.00753 3.99203 3.34864 14.3342
4.05693 3.02756 3.91832 3.37965 14.3825
4.22399 3.25442 3.80836 3.63823 14.925
4.4248 3.1234 3.82292 3.53163 14.9027
4.44314 3.32062 3.70368 3.7282 15.1956
4.77473 3.33487 3.70893 3.83526 15.6538
4.71992 3.2723 3.4294 4.17039 15.592
4.58082 3.36007 3.34995 4.14621 15.437
4.39331 3.27235 3.28664 3.98123 14.9335
4.09654 3.46457 3.08149 3.93873 14.5813
4.04912 3.16597 3.07564 3.66513 13.9559
3.71456 3.18094 3.02557 3.56003 13.4811
3.67128 3.07555 3.18046 3.49189 13.4192
3.38621 2.94894 3.34244 3.77696 13.4546
3.62654 2.84359 3.54364 3.89109 13.9049
3.68228 2.73873 3.52299 3.78645 13.7304
3.81783 2.75246 3.58555 3.85866 14.0145
4.04854 2.71845 3.6883 3.52042 13.9757
4.14785 2.75031 3.5412 3.39047 13.8298
4.23256 2.79211 3.68707 3.23897 13.9507
4.06508 2.7075 3.8294 3.19833 13.8003
4.24903 2.84267 3.91795 3.01323 14.0229
4.41199 2.7702 4.03193 2.98487 14.199
4.42499 2.98844 3.78815 3.18449 14.3861
4.52394 3.01289 3.94992 3.05474 14.5415
4.51432 3.24843 3.95926 3.24681 14.9688
4.64673 3.43986 3.95208 3.29768 15.3363
4.43749 3.47225 3.9529 3.24715 15.1098
4.29358 3.71521 3.88704 3.25981 15.1556
4.23724 3.5363 3.92066 3.27892 14.9731
4.21754 3.69967 3.52992 3.55729 15.0044
4.14097 3.50404 3.49926 3.68171 14.826
3.94703 3.45168 3.41502 3.90045 14.7142
4.20342 3.41294 3.42911 4.01065 15.0561
4.21888 3.31576 3.41717 3.92317 14.875
4.11762 3.27753 3.43028 4.0254 14.8508
4.07133 3.20164 3.67944 3.69754 14.6499
3.87894 3.26013 3.5108 3.84515 14.495
3.70222 3.01677 3.61923 3.84141 14.1796
3.5702 2.92608 3.75057 3.96924 14.2161
3.46582 2.9521 3.73615 3.79531 13.9494
3.54339 2.81538 3.83529 3.45916 13.6532
3.58927 2.77857 3.84363 3.31048 13.5219
3.8241 2.64047 3.91936 2.98383 13.3678
3.83718 2.48593 3.69904 2.97328 12.9954
3.90548 2.40139 3.77692 2.82952 12.9133
4.17432 2.47692 3.731 2.81881 13.2011
4.03079 2.60553 3.67479 2.74847 13.0596
3.82378 2.69314 3.60028 2.46596 12.5832
3.4024 2.83525 3.41515 2.39136 12.0442
2.99447 2.77077 3.34134 2.18829 11.2949
2.30316 2.58172 3.08277 1.85242 9.82007
1.59352 2.09175 2.51483 1.33631 7.53641
1.06078 1.58926 1.89398 0.93609 5.48011
0.690411 1.18638 1.44207 0.640083 3.95894
0.344403 0.799836 0.96948 0.379591 2.49331
0.0564256 0.493104 0.55431 0.165529 1.26937
0 0.0781521 0.193611 0.0287489 0.300512
0 0.0185508 0 0 0.0185508
0 0.0230893 0 0 0.0230893
0 0.0263363 0 0 0.0263363
0 0.0290969 0 0 0.0290969
0 0.0392028 0 0 0.0392028
0 0.0347689 0 0 0.0347689
0 0.0171108 0 0 0.0171108
0 0.00408458 0 0 0.00408458
0 0.00171627 0 0 0.00171627
0 0.00452969 0 0 0.00452969
0 0.00526133 0 0 0.00526133
0 0.0107951 0 0 0.0107951
0 0.0129121 0 0 0.0129121
0 0.0161402 0 0 0.0161402
0 0.0207961 0 0 0.0207961
0 0.0251584 0 0 0.0251584
0 0.0252107 0 0 0.0252107
0 0.0299493 0 0 0.0299493
0 0.032097 0 0 0.032097
0 0.0335838 0 0 0.0335838
0 0.0365909 0 0 0.0365909
0 0.0362795 0 0 0.0362795
0 0.0358918 0 0 0.0358918
0 0.0361696 0 0 0.0361696
0 0.0358514 0 0 0.0358514
0 0.0348681 0 0 0.0348681
0 0.0329113 0 0 0.0329113
0 0.0309685 0 0 0.0309685
0 0.029945 0 0 0.029945
0 0.0284008 0 0 0.0284008
0 0.0258016 0 0 0.0258016
0 0.0238494 0 0 0.0238494
0 0.0224996 0 0 0.0224996
0 0.0221329 0 0 0.0221329
0 0.0197393 0 0 0.0197393
0 0.0171017 0 0 0.0171017
0 0.0161629 0 0 0.0161629
0 0.0159646 0 0 0.0159646
0 0.0164355 0 0 0.0164355
0 0.0161331 0 0 0.0161331
0 0.0146883 0 0 0.0146883
0 0.0150913 0 0 0.0150913
0 0.0157285 0 0 0.0157285
0 0.00972191 0 0 0.00972191
0 0.0099221 0 0 0.0099221
0 0.00990273 0 0 0.00990273
0 0.00986075 0 0 0.00986075
0 0.00990273 0 0 0.00990273
0 0.0099221 0 0 0.0099221
0 0.00824849 0 0 0.00824849
0 0.00824849 0 0 0.00824849
0 0.0082646 0 0 0.0082646
0 0.00693352 0 0 0.00693352
0 0.00693352 0 0 0.00693352
0 0.00694705 0 0 0.00694705
0 0.00429516 0 0 0.00429516
0 0.00430356 0 0 0.00430356
0 0.00431196 0 0 0.00431196
