0 0 0.00796928 0 0.00796928
0 0.080212 0.0124367 0 0.0926487
0.0144501 0.094118 0.0203414 0 0.128909
0.0321237 0.176762 0.0358967 0.00323127 0.248014
0.0735712 0.373168 0.0927468 0.0320146 0.571501
0.554473 0.905336 0.552439 0.169996 2.18224
1.05613 1.44068 0.988367 0.459762 3.94494
1.61717 2.40392 1.93233 0.937103 6.89053
2.51126 3.9055 3.51069 1.76237 11.6898
4.06837 6.7432 6.58697 2.97062 20.3692
6.69289 10.112 9.83347 5.08375 31.7221
9.99153 12.6483 12.5029 7.94931 43.0921
11.9689 14.2484 14.4944 9.86636 50.578
12.9444 13.5614 15.0357 11.6877 53.2292
12.762 12.944 14.7071 12.1774 52.5906
11.6507 11.7838 12.8765 11.2306 47.5417
9.74723 10.2116 11.2366 9.40202 40.5974
8.83739 8.90379 10.3243 7.68666 35.7521
8.43369 8.36125 9.22821 6.42008 32.4432
7.81735 7.74199 8.21194 4.73439 28.5057
7.1222 6.84984 6.9719 4.04338 24.9873
6.22943 6.35645 5.99447 3.59322 22.1736
5.41252 5.76845 5.38777 3.48846 20.0572
4.48319 4.6092 4.40599 3.12307 16.6214
3.74408 3.8212 4.03052 2.90989 14.5057
3.38726 2.66508 3.53776 2.62038 12.2105
2.9882 1.71165 3.16187 1.99446 9.85618
2.29778 0.914944 2.70018 1.46331 7.37621
1.6691 0.195895 2.35242 0.964061 5.18148
1.07902 0 2.31204 0.659302 4.05036
0.415213 0 2.14361 0.352091 2.91092
0 0 2.14522 0.128122 2.27334
0 0 1.88149 0 1.88149
0 0 1.69257 0 1.69257
0 0 1.27906 0 1.27906
0 0 0.981984 0 0.981984
0 0 0.677952 0 0.677952
0 0 0.426673 0 0.426673
0 0 0.267302 0 0.267302
0 0 0.162274 0 0.162274
0 0 0.120417 0 0.120417
0.0225306 0 0.144483 0 0.167014
0.104506 0 0.189556 0 0.294062
0.158571 0 0.309587 0 0.468158
0.213374 0.0587809 0.455154 0 0.727309
0.223849 0.260668 0.657814 0 1.14233
0.173163 0.378846 0.883319 0 1.43533
0.223754 0.4673 1.0317 0 1.72275
0.409538 0.528728 1.26388 0 2.20215
0.655125 0.607159 1.5309 0 2.79319
1.0129 0.736436 1.79116 0 3.5405
1.45451 0.930751 1.93843 0.172482 4.49617
1.87675 1.19101 2.14105 0.397266 5.60607
2.07359 1.45954 2.32209 0.577984 6.43321
2.28701 1.66625 2.33597 0.825331 7.11456
2.52113 1.7694 2.24131 0.947269 7.4791
2.57345 1.69147 2.17375 0.850335 7.28901
2.5584 1.55273 2.2011 0.697294 7.00952
2.31937 1.31018 2.07525 0.488436 6.19323
2.03296 1.04106 1.97295 0.270555 5.31752
1.6909 0.815376 1.97964 0.186737 4.67266
1.29312 0.575356 1.99792 0.130351 3.99674
1.08315 0.451102 1.8359 0.0876879 3.45784
0.998149 0.320786 1.77697 0.103383 3.19929
0.920326 0.251928 1.61362 0.122815 2.90869
0.849072 0.237367 1.54557 0.123518 2.75552
0.700866 0.18408 1.55031 0.157815 2.59307
0.5922 0.18858 1.59182 0.169128 2.54173
0.433247 0.211287 1.68099 0.0982967 2.42382
0.266376 0.250422 1.65185 0.0772936 2.24594
0.17825 0.294209 1.5738 0.0566151 2.10287
0.140962 0.349308 1.33647 0.0419794 1.86872
0.16956 0.404286 1.10848 0.0130022 1.69533
0.214994 0.450724 0.932021 0.0342889 1.63203
0.291004 0.483483 0.817348 0.026103 1.61794
0.407802 0.514936 0.87699 0.00258036 1.80231
0.510095 0.590491 0.991014 0.0421665 2.13377
0.631789 0.654393 1.17213 0.0663695 2.52468
0.726216 0.730716 1.28177 0.086807 2.82551
0.819809 0.742066 1.21372 0.0646316 2.84023
0.938692 0.805813 1.0738 0.0670645 2.88537
1.00086 0.812417 0.960175 0.0577343 2.83119
1.07937 0.830765 0.815439 0.1055 2.83108
1.09961 0.8103 0.816258 0.204786 2.93095
1.1155 0.817935 0.745792 0.275284 2.95451
1.20378 0.819234 0.784881 0.332938 3.14083
1.21723 0.800229 0.819364 0.339991 3.17681
1.25611 0.799231 0.819082 0.328818 3.20324
1.21593 0.704577 0.713173 0.301628 2.93531
1.17165 0.686943 0.695001 0.328889 2.88248
1.11576 0.677322 0.758205 0.387352 2.93864
1.00468 0.632338 0.813102 0.411055 2.86118
0.978347 0.614286 0.783318 0.482668 2.85862
0.946628 0.611827 0.803948 0.491448 2.85385
0.879651 0.642267 0.845618 0.502778 2.87031
0.872163 0.645086 0.944434 0.436979 2.89866
0.784351 0.64645 0.994078 0.456901 2.88178
0.685597 0.624165 1.12358 0.461029 2.89438
0.587297 0.656018 1.24316 0.496623 2.9831
0.541785 0.675533 1.26794 0.51744 3.0027
0.555889 0.66469 1.22697 0.5463 2.99385
0.570061 0.630182 1.05313 0.496939 2.75032
0.603447 0.607631 0.893529 0.36885 2.47346
0.641992 0.56651 0.847904 0.304236 2.36064
0.685629 0.49477 0.809438 0.183332 2.17317
0.723799 0.514333 0.917494 0.170523 2.32615
0.712689 0.515832 1.09513 0.145237 2.46889
0.77558 0.533917 1.19054 0.178025 2.67806
0.822081 0.528387 1.22078 0.20806 2.7793
0.942994 0.495987 1.13742 0.186968 2.76337
1.03998 0.522562 1.00844 0.216306 2.78729
1.11099 0.598144 0.845943 0.259962 2.81504
1.13903 0.693442 0.664839 0.323833 2.82115
1.1856 0.749864 0.560991 0.316488 2.81294
1.18094 0.855894 0.536316 0.316142 2.88929
1.28576 0.90327 0.478181 0.349573 3.01679
1.38809 0.914054 0.396996 0.279093 2.97824
1.542 0.855538 0.461038 0.169633 3.02821
1.54063 0.733151 0.513168 0.144528 2.93148
1.52046 0.597875 0.564706 0.138604 2.82165
1.54675 0.497434 0.692864 0.111215 2.84827
1.49347 0.405762 0.755241 0.115687 2.77016
1.52938 0.394985 0.700095 0.1879 2.81235
1.49555 0.451751 0.769221 0.127642 2.84417
1.50853 0.547746 0.767495 0.0802838 2.90406
1.5355 0.609775 0.767338 0.055587 2.9682
1.46604 0.730547 0.803982 0 3.00057
1.4138 0.680544 0.941605 0 3.03595
1.32845 0.716312 0.98962 0 3.03438
1.25963 0.682509 0.992887 0 2.93503
1.25668 0.671837 1.04562 0 2.97413
1.24253 0.721937 1.04463 0 3.0091
1.17331 0.732687 0.989253 0 2.89525
1.18592 0.722738 1.02598 0 2.93464
1.06118 0.737609 1.05937 0 2.85816
1.03371 0.77008 1.13948 0 2.94327
0.952261 0.773314 1.2419 0 2.96748
0.887834 0.793025 1.25323 0 2.93408
0.892936 0.83967 1.29038 0 3.02299
0.873444 0.904462 1.20061 0 2.97851
0.882482 0.912149 1.08477 0.171253 3.05065
0.854912 0.926625 0.887853 0.205996 2.87539
0.885198 0.937775 0.592997 0.255632 2.6716
0.954667 0.905039 0.421739 0.32598 2.60743
1.06147 0.926081 0.288111 0.335481 2.61115
1.14082 0.915984 0.278594 0.347468 2.68287
1.16605 0.972104 0.270891 0.254722 2.66377
1.18471 0.901622 0.333779 0.207715 2.62783
1.19957 0.803944 0.446935 0.183344 2.63379
1.09325 0.770241 0.557121 0.100834 2.52145
1.05857 0.647794 0.628402 0.0368304 2.3716
1.11539 0.617086 0.649194 0.0409837 2.42266
1.16516 0.57197 0.765598 0.0779267 2.58066
1.26856 0.604699 0.879597 0.121358 2.87421
1.20819 0.660419 1.71272 0.00460295 3.58593
1.16161 0.658206 1.91992 0 3.73974
1.06435 0.701851 1.98701 0 3.75321
1.10924 0.684354 1.97444 0 3.76803
1.37841 0.73675 1.35267 0.0388713 3.50671
1.35486 0.632951 1.38052 0.0229327 3.39127
1.30252 0.579044 1.35014 0 3.23171
1.27213 0.461153 1.2775 0 3.01079
1.25211 0.280001 0.675612 0 2.20773
1.34977 0.353638 0.66617 0 2.36958
1.42683 0.391564 0.645486 0 2.46388
1.53444 0.409791 0.748554 0 2.69279
1.60258 0.433384 0.722441 0 2.7584
1.46436 0.374578 0.973379 0 2.81231
1.43542 0.358028 1.05059 0 2.84403
1.45273 0.364982 1.17012 0.012854 3.00069
1.45964 0.424403 1.35271 0.0392676 3.27601
1.28086 0.625075 1.67193 0 3.57787
1.18257 0.665248 1.67773 0.0507935 3.57634
1.19936 0.626143 1.56873 0.03431 3.42854
1.19217 0.409134 1.051 0 2.65231
1.17404 0.308929 1.13833 0 2.6213
1.17408 0.251293 1.1693 0 2.59467
1.15267 0.248952 1.01941 0 2.42104
1.16663 0.344737 0.785143 0.0755799 2.37209
1.19718 0.396395 0.857025 0.0859731 2.53658
1.28447 0.473679 0.989305 0.136941 2.88439
1.39093 0.563264 1.04917 0.151269 3.15463
1.30415 0.567893 1.20635 0.273066 3.35146
1.18754 0.567639 1.23041 0.290501 3.27609
1.13642 0.606249 1.15677 0.32743 3.22687
1.1325 0.569944 1.1545 0.298479 3.15543
1.00138 0.380997 1.33659 0.0391557 2.75812
0.99743 0.398432 1.4178 0 2.81366
0.98739 0.454089 1.47045 0.0214779 2.93341
0.993369 0.495125 1.5779 0.0442903 3.11069
1.00327 0.605114 1.47125 1.05151 0 2.56236
0.848639 0.58929 0.962654 0 2.40058
0.818045 0.523632 0.88793 0 2.22961
0.807103 0.49027 1.03139 0 2.32877
0.815866 0.512031 1.02466 0 2.35256
0.897314 0.685089 0.893131 0 2.47553
1.02204 0.65909 0.782643 0 2.46377
1.17747 0.692831 0.813827 0 2.68413
1.23176 0.645086 0.83198 0.0332441 2.74207
1.04691 0.561926 1.38062 0.344501 3.33396
1.05211 0.532725 1.4795 0.399995 3.46434
1.0772 0.615085 1.46978 0.461724 3.62379
1.01669 0.623554 1.21236 0.478793 3.3314
0.934425 0.627221 1.34002 0.404957 3.30662
0.869582 0.649227 1.2367 0.344622 3.10013
0.946502 0.612579 0.955073 0 2.51415
0.944965 0.586857 1.02684 0 2.55866
0.971719 0.524016 1.15816 0 2.6539
0.987284 0.521841 1.27086 0 2.77998
0.942468 0.542725 0.760083 0.166109 2.41138
0.925124 0.521104 0.589268 0.233432 2.26893
0.968248 0.576549 0.592309 0.235701 2.37281
1.17637 0.533405 0.419276 0.319493 2.44854
1.16579 0.476512 0.455796 0.331852 2.42995
1.11714 0.465927 0.498943 0.343254 2.42526
1.06441 0.445129 0.568393 0.351962 2.42989
1.09563 0.734737 0.844496 0.387803 3.06266
1.16303 0.813546 1.00849 0.399858 3.38492
1.1219 0.828296 0.96481 0.436249 3.35126
1.10019 0.75527 1.1174 0.409028 3.38188
1.0904 0.591768 1.36553 0 3.0477
1.08466 0.70129 1.21286 0 2.99881
1.09357 0.68384 1.12052 0 2.89793
1.09012 0.684501 1.10259 0 2.87721
1.07831 0.660936 1.11988 0 2.85913
1.07598 0.580928 0.935954 0 2.59287
1.14859 0.567459 0.878655 0 2.5947
1.1411 0.548935 0.826105 0 2.51614
1.1379 0.560038 0.697253 0 2.39519
1.16832 0.519877 0.686372 0 2.37457
1.56976 0.830612 0.599115 0.0285573 3.02804
1.53824 0.879611 0.701398 0.0279052 3.14715
1.49455 0.816959 0.696142 0.0198033 3.02745
1.41233 0.738156 0.774331 0 2.92482
1.25409 0.687646 0.806222 0.048035 2.79599
1.15963 0.689283 0.866224 0.0395941 2.75473
1.02795 0.670993 0.972086 0 2.67103
0.920108 0.63737 1.07583 0 2.63331
0.917994 0.732491 1.38844 0 3.03892
0.985289 0.782209 1.28486 0.0025273 3.05489
1.00301 0.769845 1.10646 0.0279109 2.90723
1.00249 0.776768 1.0382 0.0372466 2.85471
0.847907 0.729567 0.916127 0.00744809 2.50105
0.856034 0.755967 0.966033 0.0192807 2.59731
0.862713 0.7493 0.922001 0.0374332 2.57145
0.938292 0.74596 0.833246 0.0156402 2.53314
1.44169 0.636905 0.634297 0.031947 2.74484
1.59158 0.599475 0.579042 0.0222649 2.79236
1.63589 0.530099 0.579529 0 2.74551
1.54715 0.489724 0.690871 0.0184721 2.74622
1.15577 0.314538 1.41707 0 2.88738
1.30663 0.286934 1.32878 0 2.92235
1.41528 0.266068 1.26083 0 2.94218
1.40226 0.23135 1.32504 0.0417953 3.00045
1.35711 0.564679 1.82391 0.106492 3.85218
1.40685 0.666245 1.69074 0.0565062 3.82034
1.44522 0.704559 1.50572 0.00862121 3.66412
1.36132 0.449218 0.681773 0 2.49231
1.33418 0.468548 0.717418 0 2.52014
1.32542 0.494254 0.751141 0 2.57082
1.33178 0.534324 0.615563 0 2.48167
1.39585 0.544261 0.662209 0 2.60232
1.61298 0.349842 0.732451 0 2.69527
1.52828 0.384241 0.720054 0 2.63258
1.48485 0.369051 0.823404 0.0120888 2.68939
1.33987 0.439149 0.694736 0.105858 2.57961
1.06907 0.537309 0.849648 0.224196 2.68022
1.09287 0.584136 0.922279 0.276583 2.87587
1.03615 0.650534 1.12709 0.264533 3.0783
0.973008 0.655807 1.245 0.275329 3.14914
1.01404 0.744345 1.47688 0.273155 3.50842
1.03826 0.69754 1.4281 0.270555 3.43445
1.04187 0.655594 1.30638 0.264657 3.26851
1.00628 0.720041 1.09511 0.201399 3.02283
0.701233 0.678196 0.98232 0.0250671 2.38682
0.699017 0.66748 0.999123 0 2.36562
0.757122 0.599356 1.13391 0 2.49038
0.808268 0.541166 1.18581 0 2.53525
1.00326 0.444624 0.943212 0 2.39109
1.04379 0.467108 0.884591 0 2.39549
1.16872 0.52778 0.896035 0 2.59254
1.20564 0.571579 0.997665 0.013759 2.78864
1.1743 0.57888 1.2467 0.172063 3.17194
1.13294 0.493964 1.1648 0.239466 3.03118
1.14083 0.464809 1.04494 0.29806 2.94864
1.09713 0.542273 1.00953 0.291755 2.94069
0.949178 0.633466 1.06684 0.130061 2.77955
0.891189 0.707136 1.26982 0.0177999 2.88594
0.853732 0.694881 1.36023 0 2.90885
0.887164 0.692071 1.36457 0 2.94381
0.921476 0.679677 1.38613 0 2.98729
0.954631 0.710547 1.2938 0 2.95898
0.955996 0.73831 1.07254 0 2.76684
0.887638 0.733539 0.878172 0 2.49935
0.860204 0.755607 0.778822 0 2.39463
0.822879 0.757205 0.774537 0 2.35462
0.788014 0.756108 0.877199 0 2.42132
0.852828 0.747653 1.02824 0 2.62872
0.888193 0.71277 1.01777 0 2.61874
0.91191 0.634451 1.03748 0 2.58384
0.947111 0.626978 0.927508 0 2.5016
1.00558 0.590911 0.760086 0 2.35658
1.09809 0.556109 0.575712 0 2.22991
1.14508 0.554798 0.510628 0.0811541 2.29166
1.25433 0.630893 0.427101 0.123053 2.43538
1.27505 0.589975 0.409255 0.194634 2.46892
1.23943 0.602475 0.431048 0.277942 2.5509
1.2129 0.65951 0.442178 0.284736 2.59933
1.10119 0.644829 0.512908 0.33957 2.5985
1.05409 0.628517 0.701964 0.33586 2.72043
1.02903 0.472263 0.803461 0.462648 2.76741
1.02993 0.40696 0.880112 0.481813 2.79881
1.08556 0.368599 1.06518 0.494868 3.0142
1.04775 0.391971 1.08919 0.465664 2.99458
1.06687 0.427339 1.02037 0.472087 2.98667
1.00512 0.425067 1.096 0.465815 2.992
0.923616 0.496311 1.28562 0.33527 3.04081
0.899813 0.576174 1.36682 0.203313 3.04612
0.873769 0.570118 1.39128 0.168473 3.00364
0.911841 0.602231 1.50279 0.040455 3.05731
0.950911 0.69307 1.44416 0.00508861 3.09322
1.03906 0.830536 1.25956 0 3.12915
1.05838 0.878245 1.06906 0.0581778 3.06387
1.08558 0.870334 0.983515 0.0576429 2.99707
1.04288 0.851092 0.901001 0.0762193 2.8712
1.01397 0.766058 0.925438 0.0676718 2.77314
0.985375 0.713356 0.969753 0.133235 2.80172
0.981866 0.657834 1.04675 0.093699 2.78015
1.05491 0.553799 1.07389 0.108129 2.79073
1.09893 0.57565 0.997781 0.102579 2.77494
1.14313 0.570142 0.824437 0.0917778 2.62949
1.17705 0.527161 0.625173 0.0465408 2.37593
1.19434 0.520389 0.428558 0.063836 2.20712
1.27219 0.551311 0.291825 0.0746701 2.19
1.31951 0.610639 0.261374 0.0698796 2.26141
1.47695 0.563112 0.348396 0.0412034 2.42967
1.47324 0.567322 0.492007 0.0190767 2.55165
1.43211 0.576517 0.621456 0 2.63008
1.37885 0.537073 0.695676 0 2.6116
1.25564 0.503008 0.852386 0 2.61103
1.19556 0.421569 0.916792 0 2.53392
1.14061 0.456461 0.882614 0 2.47968
1.13831 0.498448 0.901207 0 2.53797
1.16271 0.540143 0.981755 0 2.6846
1.11302 0.609025 1.06906 0 2.79111
1.03621 0.672984 1.16344 0 2.87264
0.926482 0.765879 1.35723 0 3.04959
0.861233 0.769372 1.58446 0 3.21506
0.870092 0.762829 1.64578 0 3.2787
0.871925 0.815231 1.63085 0 3.31801
0.938878 0.86634 1.4259 0 3.23111
1.00312 0.882593 1.20686 0 3.09257
1.00638 0.958884 1.04055 0 3.00582
0.988666 0.962176 0.831675 0 2.78252
0.918751 1.01271 0.734861 0.000463243 2.66678
0.906368 0.882979 0.778908 0 2.56826
0.864154 0.862785 0.832813 0 2.55975
0.915893 0.719631 0.830736 0.00128044 2.46754
1.06272 0.662268 0.888429 0 2.61341
1.18089 0.667471 0.825959 0 2.67432
1.27211 0.695932 0.708784 0 2.67682
1.29768 0.664383 0.616426 0 2.57849
1.33023 0.652881 0.496005 0 2.47911
1.38452 0.692099 0.390318 0 2.46694
1.41109 0.756857 0.38172 0 2.54966
1.49185 0.782244 0.430089 0 2.70418
1.41138 0.844471 0.509704 0 2.76556
1.3304 0.836502 0.655992 0 2.82289
1.2464 0.754845 0.781808 0.0128846 2.79594
1.14807 0.712293 0.928857 0.032567 2.82179
1.13134 0.651538 0.97228 0.0879571 2.84311
1.17798 0.565506 1.0649 0.108318 2.91671
1.27496 0.614057 1.10777 0.0852486 3.08204
1.33466 0.612867 1.04088 0.0591465 3.04755
1.20964 0.523682 0.908774 0.0274407 2.66954
0.943445 0.349149 0.720636 0 2.01323
0.660388 0.19032 0.496185 0 1.34689
0.331227 0.0607841 0.254718 0 0.646729
0.0536083 0 0 0 0.0536083
0 0.00350615 0 0 0.00350615
0 0.00611444 0 0 0.00611444
0 0.00893008 0 0 0.00893008
0 0.0149418 0 0 0.0149418
0 0.0169123 0 0 0.0169123
0 0.018719 0 0 0.018719
0 0.024382 0 0 0.024382
0 0.0249454 0 0 0.0249454
0 0.0270271 0 0 0.0270271
0 0.0285547 0 0 0.0285547
0 0.0310192 0 0 0.0310192
0 0.03203 0 0 0.03203
0 0.034045 0 0 0.034045
0 0.0349305 0 0 0.0349305
0 0.0363022 0 0 0.0363022
0 0.0360956 0 0 0.0360956
0 0.0356587 0 0 0.0356587
0 0.0348318 0 0 0.0348318
0 0.034274 0 0 0.034274
0 0.0335627 0 0 0.0335627
0 0.0326867 0 0 0.0326867
0 0.0308586 0 0 0.0308586
0 0.0294981 0 0 0.0294981
0 0.0276726 0 0 0.0276726
0 0.0249145 0 0 0.0249145
0 0.0226546 0 0 0.0226546
0 0.0205804 0 0 0.0205804
0 0.0191462 0 0 0.0191462
0 0.0160073 0 0 0.0160073
0 0.0146284 0 0 0.0146284
0 0.0152156 0 0 0.0152156
0 0.0160304 0 0 0.0160304
0 0.0161944 0 0 0.0161944
0 0.0160304 0 0 0.0160304
0 0.0160939 0 0 0.0160939
0 0.0162579 0 0 0.0162579
0 0.0162262 0 0 0.0162262
0 0.0162579 0 0 0.0162579
0 0.013867 0 0 0.013867
0 0.01384 0 0 0.01384
0 0.013867 0 0 0.013867
0 0.0162579 0 0 0.0162579
0 0.0162579 0 0 0.0162579
0 0.0162579 0 0 0.0162579
